{
    "routes": [
    {
      "method": "GET",
      "path": "/users/:id/items",
      "handler": "User.getUserItems",
      "config": {
        "policies": [],
        "prefix": "",
        "description": "description",
        "tag": {
          "plugin": "users-permissions",
          "name": "User",
          "actionType": "find"
        }
      }
    }
    ]
}