{
  "routes": [
    {
      "method": "GET",
      "path": "/sub-type-of-properties",
      "handler": "sub-type-of-properties.find",
      "config": {
        "policies": []
      }
    },
    {
      "method": "GET",
      "path": "/sub-type-of-properties/count",
      "handler": "sub-type-of-properties.count",
      "config": {
        "policies": []
      }
    },
    {
      "method": "GET",
      "path": "/sub-type-of-properties/:id",
      "handler": "sub-type-of-properties.findOne",
      "config": {
        "policies": []
      }
    },
    {
      "method": "POST",
      "path": "/sub-type-of-properties",
      "handler": "sub-type-of-properties.create",
      "config": {
        "policies": []
      }
    },
    {
      "method": "PUT",
      "path": "/sub-type-of-properties/:id",
      "handler": "sub-type-of-properties.update",
      "config": {
        "policies": []
      }
    },
    {
      "method": "DELETE",
      "path": "/sub-type-of-properties/:id",
      "handler": "sub-type-of-properties.delete",
      "config": {
        "policies": []
      }
    }
  ]
}
