{
  "kind": "collectionType",
  "collectionName": "purposes",
  "info": {
    "name": "purpose",
    "description": ""
  },
  "options": {
    "increments": true,
    "timestamps": true,
    "draftAndPublish": true
  },
  "attributes": {
    "type": {
      "type": "string"
    },
    "developments": {
      "collection": "development"
    }
  }
}
