{
  "kind": "collectionType",
  "collectionName": "search_looking_types",
  "info": {
    "name": "searchLookingType"
  },
  "options": {
    "increments": true,
    "timestamps": true,
    "draftAndPublish": true
  },
  "attributes": {
    "type": {
      "type": "string"
    }
  }
}
